{
  "name": "AI Simple Site",
  "alias": ["ai-simple-site.now.sh"],
  "builds": [
    {
      "src": "index.js", 
      "use": "@now/node-server" 
    }
  ],
  "routes": [
    {
      "src": "/",
      "dest": "/index.js",
      "methods": ["GET"]
    },
    {
      "src": "/about",
      "dest": "/about",
      "methods": ["GET"]
    }
  ]
}
